{
  "data": [
    {
      "id": 1,
      "nombre": "Derecho Constitucional",
      "banner": "assets/images/offers/derecho-constitucional-800x400.jpg",
      "programas": [
        {
          "titulo": "Cursos",
          "data": [
            {
              "tipo": "Curso",
              "foto": "derecho constitucional/curso-derecho-internacional-de-los-derechos-humanos.jpg",
              "nombre": "Derecho Internacional de los Derechos Humanos",
              "path": "derecho-constitucional/curso-derecho-internacional-de-los-derechos-humanos.html"
            },
            {
              "tipo": "Curso",
              "foto":"derecho constitucional/curso-novedades-en-el-precedente-constitucional-dominicano.jpg",
              "nombre": "Novedades en el Precedente Constitucional Dominicano",
              "path": "derecho-constitucional/curso-novedades-en-el-precedente-constitucional-dominicano.html"
            }
          ]
        },
        {
          "titulo": "Talleres",
          "data": [
            {
              "tipo": "Taller",
              "foto":"derecho constitucional/taller-discriminacion-estructural.jpg",	
              "nombre": "Discriminación Estructural",
              "path": "derecho-constitucional/taller-discriminacion-estructural.html"
            },
            {
              "tipo": "Taller",
              "foto":"derecho constitucional/taller-estandar-jurisprudencial.jpg",	
              "nombre": "Estándar Jurisprudencial: Precedentes en Materia Civil",
              "path": "derecho-constitucional/taller-estandar-jurisprudencial-precedentes-en-materia-civil.html"
            },
            {
              "tipo": "Taller",
              "foto":"derecho constitucional/taller-redaccion-de-textos-cientificos.jpg",	
              "nombre": "Redacción de Textos Científicos",
              "path": "derecho-constitucional/taller-redaccion-de-textos-cientificos.html"
            }
          ]
        }
      ]
    },

    {
      "id": 2,
      "nombre": "Derecho Penal",
      "banner": "assets/images/offers/derecho-penal-800x400.jpg",
      "programas": [
        {
          "titulo": "Cursos",
          "data": [
            {
              "tipo": "Curso",
              "foto": "derecho penal/curso-estructuracion-de-sentencias-penales-vinculada-a-la-garantia-de-la-debida-motivacion.jpg",
              "nombre": "Estructuración de Sentencias Penales Vinculada a la Garantía de la Debida Motivación",
              "path": "derecho-penal/curso-estructuracion-de-sentencias-penales-vinculada-a-la-garantia-de-la-debida-motivacion.html"
            },
            {
              "tipo": "Curso",
              "foto": "derecho penal/curso-politica-criminal-del-estado-orientada-a-la-prevencion-del-delito.jpg",
              "nombre": "Política Criminal del Estado Orientada a la Prevención del Delito",
              "path": "derecho-penal/curso-politica-criminal-del-estado-orientada-a-la-prevencion-del-delito.html"
            }
          ]
        },
        {
          "titulo": "Diplomados",
          "data": [
            {
              "tipo": "Diplomado",
              "foto": "derecho penal/diplomado-especializado-derecho-penal-economico.jpg",
              "nombre": "Fundamentación de los Recursos: Una Mirada Desde la Garantía de los Derechos Fundamentales",
              "path": "derecho-penal/diplomado-fundamentacion-de-los-recursos-una-mirada-desde-la-garantia-de-los-derechos-fundamentales.html"
            },
            {
              "tipo": "Diplomado",
              "foto": "derecho penal/diplomado-fundamentacion-de-los-recursos.jpg",
              "nombre": "Especializado en Derecho Penal Económico",
              "path": "derecho-penal/diplomado-especializado-en-derecho-penal-economico.html"
            }
          ]
        },
        {
          "titulo": "Talleres",
          "data": [
            {
              "tipo": "Taller",
              "foto": "derecho penal/taller-elementos-esenciales-del-regimen-penitenciacio-dominicano.jpg",
              "nombre": "Elementos Esenciales del Régimen Penitenciario Dominicano",
              "path": "derecho-penal/taller-elementos-escenciales-del-regimen-penitenciario-dominicano.html"
            },
            {
              "tipo": "Taller",
              "foto": "derecho penal/taller-la-doctrina-de-la-ignorancia-deliberada-en-materia-penal.jpg",
              "nombre": "La Doctrina de la Ignorancia Deliberada en Materia Penal",
              "path": "derecho-penal/taller-la-doctrina-de-la-ignorancia-deliberada-en-materia-penal.html"
            },
            {
              "tipo": "Taller",
              "foto": "derecho penal/taller-la-prescripcion-en-materia-penal.jpg",
              "nombre": "La Prescripción en Materia Penal",
              "path": "derecho-penal/taller-la-prescripcion-en-materia-penal.html"
            }
          ]
        }
      ]
    },

    {
      "id": 3,
      "nombre": "Derecho Privado y Administrativo",
      "banner": "assets/images/offers/derecho-privado-y-administrativo-800x400.jpg",
      "programas": [
        {
          "titulo": "Cursos",
          "data": [
            {
              "tipo": "Curso",
              "foto": "derecho privado y administrativo/curso-especializado-en-responsabilidad-civil.jpg",
              "nombre": "Especializado en Responsabilidad Civil",
              "path": "derecho-privado-y-administrativo/curso-especializado-en-responsabilidad-civil.html"
            }
          ]
        },
        {
          "titulo": "Talleres",
          "data": [
            {
              "tipo": "Taller",
              "foto": "derecho privado y administrativo/taller-demandas-temerarias-en-materia-civil.jpg",
              "nombre": "Demandas temerarias en Materia Civil",
              "path": "derecho-privado-y-administrativo/taller-demandas-temerarias-en-materia-civil.html"
            },
            {
              "tipo": "Taller",
              "foto": "derecho privado y administrativo/taller-incidentes-en-el-embargo-inmobiliario.jpg",
              "nombre": "Incidentes en el Embargo Inmobiliario",
              "path": "derecho-privado-y-administrativo/taller-incidentes-en-el-embargo-inmobiliario.html"
            },
            {
              "tipo": "Taller",
              "foto":"derecho privado y administrativo/taller-contratacion-publica.jpg",
              "nombre": "Contratación Pública",
              "path": "derecho-privado-y-administrativo/taller-contratacion-publica.html"
            },
            {
              "tipo": "Taller",
              "foto":"derecho privado y administrativo/taller-alianzas-publico-privadas-aspectos-fundamentales-y-practicos-de-la-ley-47-20.jpg",
              "nombre": "Alianzas Público-privadas: Aspectos Fundamentales y Prácticos de la Ley 47-20 y su Reglamento de Aplicación",
              "path": "derecho-privado-y-administrativo/taller-alianzas-publico-privadas-aspectos-fundamentales-y-practicos-de-la-ley-47-20.html"	
            }
          ]
        }
      ]
    },

    {
      "id": 4,
      "nombre": "Formación Integral",
      "banner": "assets/images/offers/formacion-integral-800x400.jpg",
      "programas": [
        {
          "titulo": "Cursos",
          "data": [
            {
              "tipo": "Curso",
              "foto": "formacion integral/curso-basico-de-lengua-de-señas-dominicana.jpg",
              "nombre": "Básico de Lengua de señas dominicana",
              "path": "formacion-integral/curso-basico-de-lengua-de-señas-dominicana.html"
            },
            {
              "tipo": "Curso",
              "foto": "formacion integral/curso-tecnicas-y-experiencias-de-direccion-de-proyectos.jpg",
              "nombre": "Técnicas y Experiencias de Dirección de Proyectos",
              "path": "formacion-integral/curso-tecnicas-y-experiencias-de-direccion-de-proyectos.html"
            }
          ]
        },
        {
          "titulo": "Diplomados",
          "data": [
            {
              "tipo": "Diplomado",
              "foto": "formacion integral/diplomado-tecnicas-para-el-manejo-de-archivos.jpg",
              "nombre": "Técnicas para el Manejo de Archivos",
              "path": "formacion-integral/diplomado-tecnicas-para-el-manejo-de-archivos.html"
            }
          ]
        },
        {
          "titulo": "Talleres",
          "data": [
            {
              "tipo": "Taller",
              "foto": "formacion integral/taller-comunicacion-asertiva.jpg",
              "nombre": "Comunicación Asertiva",
              "path": "formacion-integral/taller-comunicacion-asertiva.html"
            },
            {
              "tipo": "Taller",
              "foto": "formacion integral/taller-manejo-de-conflictos.jpg",
              "nombre": "Manejo de Conflictos",
              "path": "formacion-integral/taller-manejo-de-conflictos.html"
            },
            {
              "tipo": "Taller",
              "foto": "formacion integral/taller-tecnicas-para-mejorar-la-concentracion-y-el-enfoque.jpg",
              "nombre": "Técnicas para mejorar la Concentración y el Enfoque",
              "path": "formacion-integral/taller-tecnicas-para-mejorar-la-concentracion-y-el-enfoque.html"
            }
          ]
        }
      ]
    },

    {
      "id": 5,
      "nombre": "Funcional",
      "banner": "assets/images/offers/funcional-800x400.jpg",
      "programas": [
        {
          "titulo": "Cursos",
          "data": [
            {
              "tipo": "Curso",
              "foto": "funcional/curso-razonamiento-argumentacion-y-estructuracion-de-las-decisiones-judiciales.jpg",
              "nombre": "Razonamiento, Argumentación y Estructuración de las Decisiones Judiciales",
              "path": "funcional/curso-razonamiento-argumentacion-y-estructuracion-de-las-decisiones-judiciales.html"
            },
            {
              "tipo": "Curso",
              "foto": "funcional/curso-aspectos-practicos-de-la-herramienta-de-firma-electronica.jpg",
              "nombre": "Aspectos Prácticos de la Herramienta de Firma Electrónica",
              "path": "funcional/curso-aspectos-practicos-de-la-herramienta-de-firma-electronica.html"
            }
          ]
        },
        {
          "titulo": "Talleres",
          "data": [
            {
              "tipo": "Taller",
              "foto": "funcional/taller-como-mejorar-nuestra-capacidad-para-argumentar.jpg",
              "nombre": "¿Cómo Mejorar Nuestra Capacidad para Argumentar?",
              "path": "funcional/taller-como-mejorar-nuestra-capacidad-para-argumentar.html"
            },
            {
              "tipo": "Taller",
              "foto": "funcional/taller-sistema-de-derivacion-de-casos-a-centros-de-mediacion.jpg",
              "nombre": "Sistema de Derivación de Casos a Centros de Mediación: Experiencia Internacional",
              "path": "funcional/taller-sistema-de-derivacion-de-casos-a-centros-de-mediacion-experiencia-internacional.html"
            },
            {
              "tipo": "Taller",
              "foto": "funcional/taller-gestion-documental.jpg",
              "nombre": "Gestión Documental",
              "path": "funcional/taller-gestion-documental.html"
            },
            {
              "tipo": "Taller",
              "foto": "funcional/taller-estudio-de-los-posibles-dilemas-eticos-en-el-ambiente-judicial.jpg",
              "nombre": "Estudio de los Posibles Dilemas Éticos en el Ambiente Judicial",
              "path": "funcional/taller-estudio-de-los-posibles-dilemas-eticos-en-el-ambiente-judicial.html"
            },
            {
              "tipo": "Taller",
              "foto": "funcional/taller-conocimiento-y-uso-adecuado-de-las-redes.jpg",
              "nombre": "Conocimiento y uso Adecuado de las Redes Sociales",
              "path": "funcional/taller-conocimiento-y-uso-adecuado-de-las-redes.html"
            },
            {
              "tipo": "Taller",
              "foto": "formacion integral/taller-comunicacion-asertiva.jpg",
              "nombre": "Comunicación Asertiva",
              "path": "funcional/taller-comunicacion-asertiva.html"
            },
            {
              "tipo": "Taller",
              "foto": "funcional/taller-trabajo-en-equipo-de-alto-desempeño.jpg",
              "nombre": "Trabajo en Equipos de Alto Desempeño",
              "path": "funcional/taller-trabajo-en-equipo-de-alto-desempeño.html"
            },
            {
              "tipo": "Taller",
              "foto": "funcional/taller-manejo-efectivo-del-tiempo.jpg",
              "nombre": "Manejo Efectivo del Tiempo",
              "path": "funcional/taller-manejo-efectivo-del-tiempo.html"
            },
            {
              "tipo": "Taller",
              "foto": "funcional/taller-entrenamiento-seguridad-en-el-uso-de-las-tic-en-el-poder-judicial.jpg",
              "nombre": "Entrenamiento Seguridad en el Uso de las TIC en el Poder Judicial",
              "path": "funcional/taller-entrenamiento-seguridad-en-el-uso-de-las-tic-en-el-poder-judicial.html"
            }
          ]
        }
      ]
    },

    {
      "id": 6,
      "nombre": "Postgrado",
      "banner": "assets/images/offers/postgrado-800x400.jpg",
      "programas": [
        {
          "titulo": "Especialidades",
          "data": [
            {
              "tipo": "Especialidad",
              "foto": "postgrado/especialidad-800x400.jpg",
              "nombre": "Redacción Expositiva y Argumentativa de las Decisiones Judiciales",
              "path": "postgrado/especialidad-en-redaccion-expositiva-y-argumentativa-de-las-decisiones-judiciales.html"
            }
          ]
        },
        {
          "titulo": "Maestrías",
          "showAfter": true,
          "data": [
            {
              "tipo": "Maestria",
              "foto": "postgrado/maestria-800x400.jpg",
              "nombre": "Administración de Justicia Constitucional",
              "path": "postgrado/maestria-en-administracion-de-justicia-constitucional.html"
            },
            {
              "tipo": "Maestria",
              "foto": "postgrado/maestria-800x400.jpg",
              "nombre": "Administración de Justicia Especializada",
              "path": "postgrado/maestria-en-administracion-de-justicia-especializada.html"
            },
            {
              "tipo": "Maestria",
              "foto": "postgrado/maestria-800x400.jpg",
              "nombre": "Administración de Justicia Penal",
              "path": "postgrado/maestria-en-administracion-de-justicia-penal.html"
            }
          ]
        }
      ]
    }
  ]
}
